+------------------+
| *** query #1 *** |
+------------------+
| *** query #1 *** |
+------------------+
+-----+-------+------+
| sID | sName | GPA  |
+-----+-------+------+
| 123 | Amy   |  3.9 |
| 345 | Craig |  3.5 |
| 543 | Craig |  3.4 |
| 876 | Irene |  3.9 |
| 987 | Helen |  3.7 |
+-----+-------+------+
+-------------------+
| *** query #2a *** |
+-------------------+
| *** query #2a *** |
+-------------------+
+-----+-------+------+
| sID | sName | GPA  |
+-----+-------+------+
| 123 | Amy   |  3.9 |
| 345 | Craig |  3.5 |
| 543 | Craig |  3.4 |
| 876 | Irene |  3.9 |
| 987 | Helen |  3.7 |
+-----+-------+------+
+-------------------+
| *** query #2b *** |
+-------------------+
| *** query #2b *** |
+-------------------+
+-----+-------+------+
| sID | sName | GPA  |
+-----+-------+------+
| 123 | Amy   |  3.9 |
| 345 | Craig |  3.5 |
| 543 | Craig |  3.4 |
| 876 | Irene |  3.9 |
| 987 | Helen |  3.7 |
+-----+-------+------+
+-------------------+
| *** query #3a *** |
+-------------------+
| *** query #3a *** |
+-------------------+
+------+
| GPA  |
+------+
|  3.9 |
|  3.9 |
|  3.9 |
|  3.7 |
|  3.7 |
|  3.5 |
|  3.4 |
+------+
+-------------------+
| *** query #3b *** |
+-------------------+
| *** query #3b *** |
+-------------------+
+------+
| GPA  |
+------+
|  3.9 |
|  3.7 |
|  3.5 |
|  3.4 |
+------+
+-------------------+
| *** query #3c *** |
+-------------------+
| *** query #3c *** |
+-------------------+
+------+
| GPA  |
+------+
|  3.9 |
|  3.9 |
|  3.7 |
|  3.5 |
|  3.4 |
+------+
+-------------------+
| *** query #3d *** |
+-------------------+
| *** query #3d *** |
+-------------------+
+------+
| GPA  |
+------+
|  3.9 |
|  3.9 |
|  3.7 |
|  3.5 |
|  3.4 |
+------+
+-------------------+
| *** query #4a *** |
+-------------------+
| *** query #4a *** |
+-------------------+
+-----+
| sID |
+-----+
| 123 |
| 345 |
| 543 |
| 876 |
| 987 |
+-----+
+-------------------+
| *** query #4b *** |
+-------------------+
| *** query #4b *** |
+-------------------+
+-----+
| sID |
+-----+
| 543 |
| 876 |
| 987 |
+-----+
+-------------------+
| *** query #4c *** |
+-------------------+
| *** query #4c *** |
+-------------------+
+------+
| sID  |
+------+
|  543 |
|  876 |
|  987 |
+------+
+-------------------+
| *** query #5a *** |
+-------------------+
| *** query #5a *** |
+-------------------+
+----------+------------+
| cName    | enrollment |
+----------+------------+
| Berkeley |      36000 |
| UCF      |      36000 |
+----------+------------+
+-------------------+
| *** query #5b *** |
+-------------------+
| *** query #5b *** |
+-------------------+
+----------+------------+
| cName    | enrollment |
+----------+------------+
| Berkeley |      36000 |
| UCF      |      36000 |
+----------+------------+
+-------------------+
| *** query #6a *** |
+-------------------+
| *** query #6a *** |
+-------------------+
+-----+-------+------+
| sID | sName | GPA  |
+-----+-------+------+
| 123 | Amy   |  3.9 |
| 320 | Lori  | NULL |
| 432 | Kevin | NULL |
| 456 | Doris |  3.9 |
| 654 | Amy   |  3.9 |
| 876 | Irene |  3.9 |
+-----+-------+------+
+-------------------+
| *** query #6b *** |
+-------------------+
| *** query #6b *** |
+-------------------+
+-----+-------+------+
| sID | sName | GPA  |
+-----+-------+------+
| 123 | Amy   |  3.9 |
| 456 | Doris |  3.9 |
| 654 | Amy   |  3.9 |
| 876 | Irene |  3.9 |
+-----+-------+------+
+-------------------+
| *** query #6c *** |
+-------------------+
| *** query #6c *** |
+-------------------+
+-----+-------+------+
| sID | sName | GPA  |
+-----+-------+------+
| 123 | Amy   |  3.9 |
| 456 | Doris |  3.9 |
| 654 | Amy   |  3.9 |
| 876 | Irene |  3.9 |
+-----+-------+------+
