<?xml version="1.0" encoding="UTF-8" standalone="no"?><svg xmlns="http://www.w3.org/2000/svg" xmlns:xlink="http://www.w3.org/1999/xlink" contentScriptType="application/ecmascript" contentStyleType="text/css" height="157px" preserveAspectRatio="none" style="width:637px;height:157px;" version="1.1" viewBox="0 0 637 157" width="637px" zoomAndPan="magnify"><defs><filter height="300%" id="f7396zsekjjx3" width="300%" x="-1" y="-1"><feGaussianBlur result="blurOut" stdDeviation="2.0"/><feColorMatrix in="blurOut" result="blurOut2" type="matrix" values="0 0 0 0 0 0 0 0 0 0 0 0 0 0 0 0 0 0 .4 0"/><feOffset dx="4.0" dy="4.0" in="blurOut2" result="blurOut3"/><feBlend in="SourceGraphic" in2="blurOut3" mode="normal"/></filter></defs><g><!--class Customer--><rect fill="#FEFECE" filter="url(#f7396zsekjjx3)" height="125.7305" id="Customer" style="stroke: #A80036; stroke-width: 1.5;" width="158" x="6" y="14.5"/><ellipse cx="53.25" cy="30.5" fill="#ADD1B2" rx="11" ry="11" style="stroke: #A80036; stroke-width: 1.0;"/><path d="M56.2231,36.1431 Q55.6421,36.4419 55.0029,36.5913 Q54.3638,36.7407 53.6582,36.7407 Q51.1514,36.7407 49.8315,35.0889 Q48.5117,33.437 48.5117,30.3159 Q48.5117,27.1865 49.8315,25.5347 Q51.1514,23.8828 53.6582,23.8828 Q54.3638,23.8828 55.0112,24.0322 Q55.6587,24.1816 56.2231,24.4805 L56.2231,27.2031 Q55.5923,26.6221 54.9988,26.3523 Q54.4053,26.0825 53.7744,26.0825 Q52.4297,26.0825 51.7449,27.1492 Q51.0601,28.2158 51.0601,30.3159 Q51.0601,32.4077 51.7449,33.4744 Q52.4297,34.541 53.7744,34.541 Q54.4053,34.541 54.9988,34.2712 Q55.5923,34.0015 56.2231,33.4204 Z "/><text fill="#000000" font-family="sans-serif" font-size="12" lengthAdjust="spacingAndGlyphs" textLength="55" x="73.75" y="35.0352">Customer</text><line style="stroke: #A80036; stroke-width: 1.5;" x1="7" x2="163" y1="46.5" y2="46.5"/><rect fill="none" height="6" style="stroke: #C82930; stroke-width: 1.0;" width="6" x="14" y="55.4775"/><text fill="#000000" font-family="sans-serif" font-size="11" lengthAdjust="spacingAndGlyphs" textLength="70" x="26" y="61.1348">String _name</text><rect fill="none" height="6" style="stroke: #C82930; stroke-width: 1.0;" width="6" x="14" y="68.4326"/><text fill="#000000" font-family="sans-serif" font-size="11" lengthAdjust="spacingAndGlyphs" textLength="132" x="26" y="74.0898">Vector&lt;Rental&gt; _rentals</text><line style="stroke: #A80036; stroke-width: 1.5;" x1="7" x2="163" y1="80.4102" y2="80.4102"/><ellipse cx="17" cy="92.3877" fill="#84BE84" rx="3" ry="3" style="stroke: #038048; stroke-width: 1.0;"/><text fill="#000000" font-family="sans-serif" font-size="11" lengthAdjust="spacingAndGlyphs" textLength="128" x="26" y="95.0449">Customer (String name)</text><ellipse cx="17" cy="105.3428" fill="#84BE84" rx="3" ry="3" style="stroke: #038048; stroke-width: 1.0;"/><text fill="#000000" font-family="sans-serif" font-size="11" lengthAdjust="spacingAndGlyphs" textLength="123" x="26" y="108">void addRental (Rental)</text><ellipse cx="17" cy="118.2979" fill="#84BE84" rx="3" ry="3" style="stroke: #038048; stroke-width: 1.0;"/><text fill="#000000" font-family="sans-serif" font-size="11" lengthAdjust="spacingAndGlyphs" textLength="93" x="26" y="120.9551">String getName ()</text><ellipse cx="17" cy="131.2529" fill="#84BE84" rx="3" ry="3" style="stroke: #038048; stroke-width: 1.0;"/><text fill="#000000" font-family="sans-serif" font-size="11" lengthAdjust="spacingAndGlyphs" textLength="99" x="26" y="133.9102">String statement ()</text><!--class Rental--><rect fill="#FEFECE" filter="url(#f7396zsekjjx3)" height="138.6855" id="Rental" style="stroke: #A80036; stroke-width: 1.5;" width="187" x="199.5" y="8"/><ellipse cx="270.75" cy="24" fill="#ADD1B2" rx="11" ry="11" style="stroke: #A80036; stroke-width: 1.0;"/><path d="M273.7231,29.6431 Q273.1421,29.9419 272.5029,30.0913 Q271.8638,30.2407 271.1582,30.2407 Q268.6514,30.2407 267.3315,28.5889 Q266.0117,26.937 266.0117,23.8159 Q266.0117,20.6865 267.3315,19.0347 Q268.6514,17.3828 271.1582,17.3828 Q271.8638,17.3828 272.5112,17.5322 Q273.1587,17.6816 273.7231,17.9805 L273.7231,20.7031 Q273.0923,20.1221 272.4988,19.8523 Q271.9053,19.5825 271.2744,19.5825 Q269.9297,19.5825 269.2449,20.6492 Q268.5601,21.7158 268.5601,23.8159 Q268.5601,25.9077 269.2449,26.9744 Q269.9297,28.041 271.2744,28.041 Q271.9053,28.041 272.4988,27.7712 Q273.0923,27.5015 273.7231,26.9204 Z "/><text fill="#000000" font-family="sans-serif" font-size="12" lengthAdjust="spacingAndGlyphs" textLength="36" x="291.25" y="28.5352">Rental</text><line style="stroke: #A80036; stroke-width: 1.5;" x1="200.5" x2="385.5" y1="40" y2="40"/><rect fill="none" height="6" style="stroke: #C82930; stroke-width: 1.0;" width="6" x="207.5" y="48.9775"/><text fill="#000000" font-family="sans-serif" font-size="11" lengthAdjust="spacingAndGlyphs" textLength="85" x="219.5" y="54.6348">int _daysRented</text><rect fill="none" height="6" style="stroke: #C82930; stroke-width: 1.0;" width="6" x="207.5" y="61.9326"/><text fill="#000000" font-family="sans-serif" font-size="11" lengthAdjust="spacingAndGlyphs" textLength="72" x="219.5" y="67.5898">Movie _movie</text><line style="stroke: #A80036; stroke-width: 1.5;" x1="200.5" x2="385.5" y1="73.9102" y2="73.9102"/><ellipse cx="210.5" cy="85.8877" fill="#84BE84" rx="3" ry="3" style="stroke: #038048; stroke-width: 1.0;"/><text fill="#000000" font-family="sans-serif" font-size="11" lengthAdjust="spacingAndGlyphs" textLength="160" x="219.5" y="88.5449">Rental (Movie, int daysRented)</text><ellipse cx="210.5" cy="98.8428" fill="#84BE84" rx="3" ry="3" style="stroke: #038048; stroke-width: 1.0;"/><text fill="#000000" font-family="sans-serif" font-size="11" lengthAdjust="spacingAndGlyphs" textLength="107" x="219.5" y="101.5">double getCharge ()</text><ellipse cx="210.5" cy="111.7979" fill="#84BE84" rx="3" ry="3" style="stroke: #038048; stroke-width: 1.0;"/><text fill="#000000" font-family="sans-serif" font-size="11" lengthAdjust="spacingAndGlyphs" textLength="108" x="219.5" y="114.4551">int getDaysRented ()</text><ellipse cx="210.5" cy="124.7529" fill="#84BE84" rx="3" ry="3" style="stroke: #038048; stroke-width: 1.0;"/><text fill="#000000" font-family="sans-serif" font-size="11" lengthAdjust="spacingAndGlyphs" textLength="161" x="219.5" y="127.4102">int getFrequentRenterPoints ()</text><ellipse cx="210.5" cy="137.708" fill="#84BE84" rx="3" ry="3" style="stroke: #038048; stroke-width: 1.0;"/><text fill="#000000" font-family="sans-serif" font-size="11" lengthAdjust="spacingAndGlyphs" textLength="93" x="219.5" y="140.3652">Movie getMovie ()</text><!--class Movie--><rect fill="#FEFECE" filter="url(#f7396zsekjjx3)" height="125.7305" id="Movie" style="stroke: #A80036; stroke-width: 1.5;" width="205" x="421.5" y="14.5"/><ellipse cx="503.25" cy="30.5" fill="#ADD1B2" rx="11" ry="11" style="stroke: #A80036; stroke-width: 1.0;"/><path d="M506.2231,36.1431 Q505.6421,36.4419 505.0029,36.5913 Q504.3638,36.7407 503.6582,36.7407 Q501.1514,36.7407 499.8315,35.0889 Q498.5117,33.437 498.5117,30.3159 Q498.5117,27.1865 499.8315,25.5347 Q501.1514,23.8828 503.6582,23.8828 Q504.3638,23.8828 505.0112,24.0322 Q505.6587,24.1816 506.2231,24.4805 L506.2231,27.2031 Q505.5923,26.6221 504.9988,26.3523 Q504.4053,26.0825 503.7744,26.0825 Q502.4297,26.0825 501.7449,27.1492 Q501.0601,28.2158 501.0601,30.3159 Q501.0601,32.4077 501.7449,33.4744 Q502.4297,34.541 503.7744,34.541 Q504.4053,34.541 504.9988,34.2712 Q505.5923,34.0015 506.2231,33.4204 Z "/><text fill="#000000" font-family="sans-serif" font-size="12" lengthAdjust="spacingAndGlyphs" textLength="33" x="523.75" y="35.0352">Movie</text><line style="stroke: #A80036; stroke-width: 1.5;" x1="422.5" x2="625.5" y1="46.5" y2="46.5"/><rect fill="none" height="6" style="stroke: #C82930; stroke-width: 1.0;" width="6" x="429.5" y="55.4775"/><text fill="#000000" font-family="sans-serif" font-size="11" lengthAdjust="spacingAndGlyphs" textLength="78" x="441.5" y="61.1348">int _priceCode</text><rect fill="none" height="6" style="stroke: #C82930; stroke-width: 1.0;" width="6" x="429.5" y="68.4326"/><text fill="#000000" font-family="sans-serif" font-size="11" lengthAdjust="spacingAndGlyphs" textLength="61" x="441.5" y="74.0898">String _title</text><line style="stroke: #A80036; stroke-width: 1.5;" x1="422.5" x2="625.5" y1="80.4102" y2="80.4102"/><ellipse cx="432.5" cy="92.3877" fill="#84BE84" rx="3" ry="3" style="stroke: #038048; stroke-width: 1.0;"/><text fill="#000000" font-family="sans-serif" font-size="11" lengthAdjust="spacingAndGlyphs" textLength="175" x="441.5" y="95.0449">Movie (String title, int priceCode)</text><ellipse cx="432.5" cy="105.3428" fill="#84BE84" rx="3" ry="3" style="stroke: #038048; stroke-width: 1.0;"/><text fill="#000000" font-family="sans-serif" font-size="11" lengthAdjust="spacingAndGlyphs" textLength="99" x="441.5" y="108">int getPriceCode ()</text><ellipse cx="432.5" cy="118.2979" fill="#84BE84" rx="3" ry="3" style="stroke: #038048; stroke-width: 1.0;"/><text fill="#000000" font-family="sans-serif" font-size="11" lengthAdjust="spacingAndGlyphs" textLength="86" x="441.5" y="120.9551">String getTitle ()</text><ellipse cx="432.5" cy="131.2529" fill="#84BE84" rx="3" ry="3" style="stroke: #038048; stroke-width: 1.0;"/><text fill="#000000" font-family="sans-serif" font-size="11" lengthAdjust="spacingAndGlyphs" textLength="179" x="441.5" y="133.9102">void setPriceCode (int priceCode)</text><!--link Customer to Rental--><path d="M177.4239,77.5 C184.76,77.5 192.0962,77.5 199.4324,77.5 " fill="none" id="Customer-Rental" style="stroke: #A80036; stroke-width: 1.0;"/><polygon fill="#A80036" points="164.2188,77.5,170.2188,81.5,176.2188,77.5,170.2188,73.5,164.2188,77.5" style="stroke: #A80036; stroke-width: 1.0;"/><text fill="#000000" font-family="sans-serif" font-size="13" lengthAdjust="spacingAndGlyphs" textLength="8" x="171.8905" y="74.4037">1</text><text fill="#000000" font-family="sans-serif" font-size="13" lengthAdjust="spacingAndGlyphs" textLength="6" x="185.4354" y="74.4731">*</text><!--link Rental to Movie--><path d="M400.0726,77.5 C407.182,77.5 414.2913,77.5 421.4007,77.5 " fill="none" id="Rental-Movie" style="stroke: #A80036; stroke-width: 1.0;"/><polygon fill="#FFFFFF" points="386.8438,77.5,392.8438,81.5,398.8438,77.5,392.8438,73.5,386.8438,77.5" style="stroke: #A80036; stroke-width: 1.0;"/><text fill="#000000" font-family="sans-serif" font-size="13" lengthAdjust="spacingAndGlyphs" textLength="6" x="394.561" y="74.4956">*</text><text fill="#000000" font-family="sans-serif" font-size="13" lengthAdjust="spacingAndGlyphs" textLength="8" x="405.5723" y="74.5389">1</text><!--
@startuml
Customer "1" *- "*" Rental
Rental   "*" o- "1" Movie

class Customer {
    - String _name
    - Vector<Rental> _rentals
    + Customer (String name)
    + void addRental (Rental)
    + String getName ()
    + String statement ()
    }

class Rental {
    - int _daysRented
    - Movie _movie
    + Rental (Movie, int daysRented)
    + double getCharge ()
    + int getDaysRented ()
    + int getFrequentRenterPoints ()
    + Movie getMovie ()
    }

class Movie {
    - int _priceCode
    - String _title
    + Movie (String title, int priceCode)
    + int getPriceCode ()
    + String getTitle ()
    + void setPriceCode (int priceCode)
    }

@enduml

PlantUML version 1.2018.12(Sun Oct 21 05:15:15 CDT 2018)
(GPL source distribution)
Java Runtime: Java(TM) SE Runtime Environment
JVM: Java HotSpot(TM) 64-Bit Server VM
Java Version: 10.0.1+10
Operating System: Mac OS X
OS Version: 10.13.6
Default Encoding: UTF-8
Language: en
Country: US
--></g></svg>