<?xml version="1.0" encoding="UTF-8" standalone="no"?><svg xmlns="http://www.w3.org/2000/svg" xmlns:xlink="http://www.w3.org/1999/xlink" contentScriptType="application/ecmascript" contentStyleType="text/css" height="118px" preserveAspectRatio="none" style="width:415px;height:118px;" version="1.1" viewBox="0 0 415 118" width="415px" zoomAndPan="magnify"><defs><filter height="300%" id="f1mj7ukovqt1l1" width="300%" x="-1" y="-1"><feGaussianBlur result="blurOut" stdDeviation="2.0"/><feColorMatrix in="blurOut" result="blurOut2" type="matrix" values="0 0 0 0 0 0 0 0 0 0 0 0 0 0 0 0 0 0 .4 0"/><feOffset dx="4.0" dy="4.0" in="blurOut2" result="blurOut3"/><feBlend in="SourceGraphic" in2="blurOut3" mode="normal"/></filter></defs><g><!--class Student--><rect fill="#FEFECE" filter="url(#f1mj7ukovqt1l1)" height="99.8203" id="Student" style="stroke: #A80036; stroke-width: 1.5;" width="86" x="6" y="8"/><ellipse cx="25.95" cy="24" fill="#ADD1B2" rx="11" ry="11" style="stroke: #A80036; stroke-width: 1.0;"/><path d="M28.9231,29.6431 Q28.3421,29.9419 27.7029,30.0913 Q27.0638,30.2407 26.3582,30.2407 Q23.8514,30.2407 22.5315,28.5889 Q21.2117,26.937 21.2117,23.8159 Q21.2117,20.6865 22.5315,19.0347 Q23.8514,17.3828 26.3582,17.3828 Q27.0638,17.3828 27.7112,17.5322 Q28.3587,17.6816 28.9231,17.9805 L28.9231,20.7031 Q28.2923,20.1221 27.6988,19.8523 Q27.1053,19.5825 26.4744,19.5825 Q25.1297,19.5825 24.4449,20.6492 Q23.7601,21.7158 23.7601,23.8159 Q23.7601,25.9077 24.4449,26.9744 Q25.1297,28.041 26.4744,28.041 Q27.1053,28.041 27.6988,27.7712 Q28.2923,27.5015 28.9231,26.9204 Z "/><text fill="#000000" font-family="sans-serif" font-size="12" lengthAdjust="spacingAndGlyphs" textLength="43" x="41.05" y="28.5352">Student</text><line style="stroke: #A80036; stroke-width: 1.5;" x1="7" x2="91" y1="40" y2="40"/><ellipse cx="17" cy="51.9775" fill="none" rx="3" ry="3" style="stroke: #038048; stroke-width: 1.0;"/><text fill="#000000" font-family="sans-serif" font-size="11" lengthAdjust="spacingAndGlyphs" textLength="34" x="26" y="54.6348">int sID</text><ellipse cx="17" cy="64.9326" fill="none" rx="3" ry="3" style="stroke: #038048; stroke-width: 1.0;"/><text fill="#000000" font-family="sans-serif" font-size="11" lengthAdjust="spacingAndGlyphs" textLength="60" x="26" y="67.5898">text sName</text><ellipse cx="17" cy="77.8877" fill="none" rx="3" ry="3" style="stroke: #038048; stroke-width: 1.0;"/><text fill="#000000" font-family="sans-serif" font-size="11" lengthAdjust="spacingAndGlyphs" textLength="49" x="26" y="80.5449">float GPA</text><ellipse cx="17" cy="90.8428" fill="none" rx="3" ry="3" style="stroke: #038048; stroke-width: 1.0;"/><text fill="#000000" font-family="sans-serif" font-size="11" lengthAdjust="spacingAndGlyphs" textLength="52" x="26" y="93.5">int sizeHS</text><line style="stroke: #A80036; stroke-width: 1.5;" x1="7" x2="91" y1="99.8203" y2="99.8203"/><!--class Apply--><rect fill="#FEFECE" filter="url(#f1mj7ukovqt1l1)" height="99.8203" id="Apply" style="stroke: #A80036; stroke-width: 1.5;" width="121" x="127.5" y="8"/><ellipse cx="167.7" cy="24" fill="#ADD1B2" rx="11" ry="11" style="stroke: #A80036; stroke-width: 1.0;"/><path d="M170.6731,29.6431 Q170.0921,29.9419 169.4529,30.0913 Q168.8138,30.2407 168.1082,30.2407 Q165.6014,30.2407 164.2815,28.5889 Q162.9617,26.937 162.9617,23.8159 Q162.9617,20.6865 164.2815,19.0347 Q165.6014,17.3828 168.1082,17.3828 Q168.8138,17.3828 169.4612,17.5322 Q170.1087,17.6816 170.6731,17.9805 L170.6731,20.7031 Q170.0423,20.1221 169.4488,19.8523 Q168.8553,19.5825 168.2244,19.5825 Q166.8797,19.5825 166.1949,20.6492 Q165.5101,21.7158 165.5101,23.8159 Q165.5101,25.9077 166.1949,26.9744 Q166.8797,28.041 168.2244,28.041 Q168.8553,28.041 169.4488,27.7712 Q170.0423,27.5015 170.6731,26.9204 Z "/><text fill="#000000" font-family="sans-serif" font-size="12" lengthAdjust="spacingAndGlyphs" textLength="33" x="187.3" y="28.5352">Apply</text><line style="stroke: #A80036; stroke-width: 1.5;" x1="128.5" x2="247.5" y1="40" y2="40"/><ellipse cx="138.5" cy="51.9775" fill="none" rx="3" ry="3" style="stroke: #038048; stroke-width: 1.0;"/><text fill="#000000" font-family="sans-serif" font-size="11" lengthAdjust="spacingAndGlyphs" textLength="34" x="147.5" y="54.6348">int sID</text><ellipse cx="138.5" cy="64.9326" fill="none" rx="3" ry="3" style="stroke: #038048; stroke-width: 1.0;"/><text fill="#000000" font-family="sans-serif" font-size="11" lengthAdjust="spacingAndGlyphs" textLength="95" x="147.5" y="67.5898">varchar[8] cName</text><ellipse cx="138.5" cy="77.8877" fill="none" rx="3" ry="3" style="stroke: #038048; stroke-width: 1.0;"/><text fill="#000000" font-family="sans-serif" font-size="11" lengthAdjust="spacingAndGlyphs" textLength="55" x="147.5" y="80.5449">text major</text><ellipse cx="138.5" cy="90.8428" fill="none" rx="3" ry="3" style="stroke: #038048; stroke-width: 1.0;"/><text fill="#000000" font-family="sans-serif" font-size="11" lengthAdjust="spacingAndGlyphs" textLength="91" x="147.5" y="93.5">boolean decision</text><line style="stroke: #A80036; stroke-width: 1.5;" x1="128.5" x2="247.5" y1="99.8203" y2="99.8203"/><!--class College--><rect fill="#FEFECE" filter="url(#f1mj7ukovqt1l1)" height="86.8652" id="College" style="stroke: #A80036; stroke-width: 1.5;" width="121" x="283.5" y="14.5"/><ellipse cx="319.65" cy="30.5" fill="#ADD1B2" rx="11" ry="11" style="stroke: #A80036; stroke-width: 1.0;"/><path d="M322.6231,36.1431 Q322.0421,36.4419 321.4029,36.5913 Q320.7638,36.7407 320.0582,36.7407 Q317.5514,36.7407 316.2315,35.0889 Q314.9117,33.437 314.9117,30.3159 Q314.9117,27.1865 316.2315,25.5347 Q317.5514,23.8828 320.0582,23.8828 Q320.7638,23.8828 321.4112,24.0322 Q322.0587,24.1816 322.6231,24.4805 L322.6231,27.2031 Q321.9923,26.6221 321.3988,26.3523 Q320.8053,26.0825 320.1744,26.0825 Q318.8297,26.0825 318.1449,27.1492 Q317.4601,28.2158 317.4601,30.3159 Q317.4601,32.4077 318.1449,33.4744 Q318.8297,34.541 320.1744,34.541 Q320.8053,34.541 321.3988,34.2712 Q321.9923,34.0015 322.6231,33.4204 Z "/><text fill="#000000" font-family="sans-serif" font-size="12" lengthAdjust="spacingAndGlyphs" textLength="42" x="338.35" y="35.0352">College</text><line style="stroke: #A80036; stroke-width: 1.5;" x1="284.5" x2="403.5" y1="46.5" y2="46.5"/><ellipse cx="294.5" cy="58.4775" fill="none" rx="3" ry="3" style="stroke: #038048; stroke-width: 1.0;"/><text fill="#000000" font-family="sans-serif" font-size="11" lengthAdjust="spacingAndGlyphs" textLength="95" x="303.5" y="61.1348">varchar[8] cName</text><ellipse cx="294.5" cy="71.4326" fill="none" rx="3" ry="3" style="stroke: #038048; stroke-width: 1.0;"/><text fill="#000000" font-family="sans-serif" font-size="11" lengthAdjust="spacingAndGlyphs" textLength="68" x="303.5" y="74.0898">char[2] state</text><ellipse cx="294.5" cy="84.3877" fill="none" rx="3" ry="3" style="stroke: #038048; stroke-width: 1.0;"/><text fill="#000000" font-family="sans-serif" font-size="11" lengthAdjust="spacingAndGlyphs" textLength="75" x="303.5" y="87.0449">int enrollment</text><line style="stroke: #A80036; stroke-width: 1.5;" x1="284.5" x2="403.5" y1="93.3652" y2="93.3652"/><!--link Student to Apply--><path d="M105.3619,58 C112.693,58 120.024,58 127.3551,58 " fill="none" id="Student-Apply" style="stroke: #A80036; stroke-width: 1.0;"/><polygon fill="#FFFFFF" points="92.166,58,98.166,62,104.166,58,98.166,54,92.166,58" style="stroke: #A80036; stroke-width: 1.0;"/><text fill="#000000" font-family="sans-serif" font-size="13" lengthAdjust="spacingAndGlyphs" textLength="8" x="99.9779" y="54.3668">1</text><text fill="#000000" font-family="sans-serif" font-size="13" lengthAdjust="spacingAndGlyphs" textLength="6" x="113.5984" y="54.6842">*</text><!--link Apply to College--><path d="M248.6328,58 C255.7603,58 262.8878,58 270.0153,58 " fill="none" id="Apply-College" style="stroke: #A80036; stroke-width: 1.0;"/><polygon fill="#FFFFFF" points="283.2779,58,277.2779,54,271.2779,58,277.2779,62,283.2779,58" style="stroke: #A80036; stroke-width: 1.0;"/><text fill="#000000" font-family="sans-serif" font-size="13" lengthAdjust="spacingAndGlyphs" textLength="6" x="256.388" y="54.6842">*</text><text fill="#000000" font-family="sans-serif" font-size="13" lengthAdjust="spacingAndGlyphs" textLength="8" x="267.3899" y="54.6814">1</text><!--
@startuml

Student "1" o- "*" Apply
Apply   "*" -o "1" College

class Student {
    + int sID
    + text sName
    + float GPA
    + int sizeHS
    }

class College {
    + varchar[8] cName
    + char[2] state
    + int enrollment
    }

class Apply {
    + int sID
    + varchar[8] cName
    + text major
    + boolean decision
    }

@enduml

PlantUML version 1.2018.12(Sun Oct 21 05:15:15 CDT 2018)
(GPL source distribution)
Java Runtime: Java(TM) SE Runtime Environment
JVM: Java HotSpot(TM) 64-Bit Server VM
Java Version: 10.0.1+10
Operating System: Mac OS X
OS Version: 10.13.6
Default Encoding: UTF-8
Language: en
Country: US
--></g></svg>