<?xml version="1.0" encoding="UTF-8" standalone="no"?><svg xmlns="http://www.w3.org/2000/svg" xmlns:xlink="http://www.w3.org/1999/xlink" contentScriptType="application/ecmascript" contentStyleType="text/css" height="451px" preserveAspectRatio="none" style="width:1247px;height:451px;" version="1.1" viewBox="0 0 1247 451" width="1247px" zoomAndPan="magnify"><defs><filter height="300%" id="fl3m0pc8ljuzt" width="300%" x="-1" y="-1"><feGaussianBlur result="blurOut" stdDeviation="2.0"/><feColorMatrix in="blurOut" result="blurOut2" type="matrix" values="0 0 0 0 0 0 0 0 0 0 0 0 0 0 0 0 0 0 .4 0"/><feOffset dx="4.0" dy="4.0" in="blurOut2" result="blurOut3"/><feBlend in="SourceGraphic" in2="blurOut3" mode="normal"/></filter></defs><g><!--class Price--><rect fill="#FEFECE" filter="url(#fl3m0pc8ljuzt)" height="86.8652" id="Price" style="stroke: #A80036; stroke-width: 1.5;" width="266" x="723" y="47"/><ellipse cx="837.75" cy="63" fill="#B4A7E5" rx="11" ry="11" style="stroke: #A80036; stroke-width: 1.0;"/><path d="M834.1777,59.2651 L834.1777,57.1069 L841.5571,57.1069 L841.5571,59.2651 L839.0918,59.2651 L839.0918,67.3418 L841.5571,67.3418 L841.5571,69.5 L834.1777,69.5 L834.1777,67.3418 L836.6431,67.3418 L836.6431,59.2651 Z "/><text fill="#000000" font-family="sans-serif" font-size="12" font-style="italic" lengthAdjust="spacingAndGlyphs" textLength="28" x="858.25" y="67.5352">Price</text><line style="stroke: #A80036; stroke-width: 1.5;" x1="724" x2="988" y1="79" y2="79"/><line style="stroke: #A80036; stroke-width: 1.5;" x1="724" x2="988" y1="87" y2="87"/><ellipse cx="734" cy="98.9775" fill="#84BE84" rx="3" ry="3" style="stroke: #038048; stroke-width: 1.0;"/><text fill="#000000" font-family="sans-serif" font-size="11" lengthAdjust="spacingAndGlyphs" textLength="186" x="743" y="101.6348">double getCharge (int daysRented)</text><ellipse cx="734" cy="111.9326" fill="#84BE84" rx="3" ry="3" style="stroke: #038048; stroke-width: 1.0;"/><text fill="#000000" font-family="sans-serif" font-size="11" lengthAdjust="spacingAndGlyphs" textLength="99" x="743" y="114.5898">int getPriceCode ()</text><ellipse cx="734" cy="124.8877" fill="#84BE84" rx="3" ry="3" style="stroke: #038048; stroke-width: 1.0;"/><text fill="#000000" font-family="sans-serif" font-size="11" lengthAdjust="spacingAndGlyphs" textLength="240" x="743" y="127.5449">int getFrequentRenterPoints (int daysRented)</text><!--class AbstractPrice--><rect fill="#FEFECE" filter="url(#fl3m0pc8ljuzt)" height="60.9551" id="AbstractPrice" style="stroke: #A80036; stroke-width: 1.5;" width="266" x="723" y="233"/><ellipse cx="813.75" cy="249" fill="#A9DCDF" rx="11" ry="11" style="stroke: #A80036; stroke-width: 1.0;"/><path d="M813.8633,244.5981 L812.7095,249.6699 L815.0254,249.6699 Z M812.3691,242.3569 L815.3657,242.3569 L818.7109,254.75 L816.2622,254.75 L815.4985,251.687 L812.2197,251.687 L811.4727,254.75 L809.0239,254.75 Z "/><text fill="#000000" font-family="sans-serif" font-size="12" font-style="italic" lengthAdjust="spacingAndGlyphs" textLength="76" x="834.25" y="253.5352">AbstractPrice</text><line style="stroke: #A80036; stroke-width: 1.5;" x1="724" x2="988" y1="265" y2="265"/><line style="stroke: #A80036; stroke-width: 1.5;" x1="724" x2="988" y1="273" y2="273"/><ellipse cx="734" cy="284.9775" fill="#84BE84" rx="3" ry="3" style="stroke: #038048; stroke-width: 1.0;"/><text fill="#000000" font-family="sans-serif" font-size="11" lengthAdjust="spacingAndGlyphs" textLength="240" x="743" y="287.6348">int getFrequentRenterPoints (int daysRented)</text><!--class ChildrensPrice--><rect fill="#FEFECE" filter="url(#fl3m0pc8ljuzt)" height="73.9102" id="ChildrensPrice" style="stroke: #A80036; stroke-width: 1.5;" width="212" x="476" y="360.5"/><ellipse cx="536.75" cy="376.5" fill="#ADD1B2" rx="11" ry="11" style="stroke: #A80036; stroke-width: 1.0;"/><path d="M539.2231,382.6431 Q538.6421,382.9419 538.0029,383.0913 Q537.3638,383.2407 536.6582,383.2407 Q534.1514,383.2407 532.8315,381.5889 Q531.5117,379.937 531.5117,376.8159 Q531.5117,373.6865 532.8315,372.0347 Q534.1514,370.3828 536.6582,370.3828 Q537.3638,370.3828 538.0112,370.5322 Q538.6587,370.6816 539.2231,370.9805 L539.2231,373.7031 Q538.5923,373.1221 537.9988,372.8523 Q537.4053,372.5825 536.7744,372.5825 Q535.4297,372.5825 534.7449,373.6492 Q534.0601,374.7158 534.0601,376.8159 Q534.0601,378.9077 534.7449,379.9744 Q535.4297,381.041 536.7744,381.041 Q537.4053,381.041 537.9988,380.7712 Q538.5923,380.5015 539.2231,379.9204 Z "/><text fill="#000000" font-family="sans-serif" font-size="12" lengthAdjust="spacingAndGlyphs" textLength="82" x="557.25" y="381.0352">ChildrensPrice</text><line style="stroke: #A80036; stroke-width: 1.5;" x1="477" x2="687" y1="392.5" y2="392.5"/><line style="stroke: #A80036; stroke-width: 1.5;" x1="477" x2="687" y1="400.5" y2="400.5"/><ellipse cx="487" cy="412.4775" fill="#84BE84" rx="3" ry="3" style="stroke: #038048; stroke-width: 1.0;"/><text fill="#000000" font-family="sans-serif" font-size="11" lengthAdjust="spacingAndGlyphs" textLength="186" x="496" y="415.1348">double getCharge (int daysRented)</text><ellipse cx="487" cy="425.4326" fill="#84BE84" rx="3" ry="3" style="stroke: #038048; stroke-width: 1.0;"/><text fill="#000000" font-family="sans-serif" font-size="11" lengthAdjust="spacingAndGlyphs" textLength="99" x="496" y="428.0898">int getPriceCode ()</text><!--class NewReleasePrice--><rect fill="#FEFECE" filter="url(#fl3m0pc8ljuzt)" height="86.8652" id="NewReleasePrice" style="stroke: #A80036; stroke-width: 1.5;" width="266" x="723" y="354"/><ellipse cx="802.75" cy="370" fill="#ADD1B2" rx="11" ry="11" style="stroke: #A80036; stroke-width: 1.0;"/><path d="M805.2231,376.1431 Q804.6421,376.4419 804.0029,376.5913 Q803.3638,376.7407 802.6582,376.7407 Q800.1514,376.7407 798.8315,375.0889 Q797.5117,373.437 797.5117,370.3159 Q797.5117,367.1865 798.8315,365.5347 Q800.1514,363.8828 802.6582,363.8828 Q803.3638,363.8828 804.0112,364.0322 Q804.6587,364.1816 805.2231,364.4805 L805.2231,367.2031 Q804.5923,366.6221 803.9988,366.3523 Q803.4053,366.0825 802.7744,366.0825 Q801.4297,366.0825 800.7449,367.1492 Q800.0601,368.2158 800.0601,370.3159 Q800.0601,372.4077 800.7449,373.4744 Q801.4297,374.541 802.7744,374.541 Q803.4053,374.541 803.9988,374.2712 Q804.5923,374.0015 805.2231,373.4204 Z "/><text fill="#000000" font-family="sans-serif" font-size="12" lengthAdjust="spacingAndGlyphs" textLength="98" x="823.25" y="374.5352">NewReleasePrice</text><line style="stroke: #A80036; stroke-width: 1.5;" x1="724" x2="988" y1="386" y2="386"/><line style="stroke: #A80036; stroke-width: 1.5;" x1="724" x2="988" y1="394" y2="394"/><ellipse cx="734" cy="405.9775" fill="#84BE84" rx="3" ry="3" style="stroke: #038048; stroke-width: 1.0;"/><text fill="#000000" font-family="sans-serif" font-size="11" lengthAdjust="spacingAndGlyphs" textLength="186" x="743" y="408.6348">double getCharge (int daysRented)</text><ellipse cx="734" cy="418.9326" fill="#84BE84" rx="3" ry="3" style="stroke: #038048; stroke-width: 1.0;"/><text fill="#000000" font-family="sans-serif" font-size="11" lengthAdjust="spacingAndGlyphs" textLength="240" x="743" y="421.5898">int getFrequentRenterPoints (int daysRented)</text><ellipse cx="734" cy="431.8877" fill="#84BE84" rx="3" ry="3" style="stroke: #038048; stroke-width: 1.0;"/><text fill="#000000" font-family="sans-serif" font-size="11" lengthAdjust="spacingAndGlyphs" textLength="99" x="743" y="434.5449">int getPriceCode ()</text><!--class RegularPrice--><rect fill="#FEFECE" filter="url(#fl3m0pc8ljuzt)" height="73.9102" id="RegularPrice" style="stroke: #A80036; stroke-width: 1.5;" width="212" x="1024" y="360.5"/><ellipse cx="1089.75" cy="376.5" fill="#ADD1B2" rx="11" ry="11" style="stroke: #A80036; stroke-width: 1.0;"/><path d="M1092.2231,382.6431 Q1091.6421,382.9419 1091.0029,383.0913 Q1090.3638,383.2407 1089.6582,383.2407 Q1087.1514,383.2407 1085.8315,381.5889 Q1084.5117,379.937 1084.5117,376.8159 Q1084.5117,373.6865 1085.8315,372.0347 Q1087.1514,370.3828 1089.6582,370.3828 Q1090.3638,370.3828 1091.0112,370.5322 Q1091.6587,370.6816 1092.2231,370.9805 L1092.2231,373.7031 Q1091.5923,373.1221 1090.9988,372.8523 Q1090.4053,372.5825 1089.7744,372.5825 Q1088.4297,372.5825 1087.7449,373.6492 Q1087.0601,374.7158 1087.0601,376.8159 Q1087.0601,378.9077 1087.7449,379.9744 Q1088.4297,381.041 1089.7744,381.041 Q1090.4053,381.041 1090.9988,380.7712 Q1091.5923,380.5015 1092.2231,379.9204 Z "/><text fill="#000000" font-family="sans-serif" font-size="12" lengthAdjust="spacingAndGlyphs" textLength="72" x="1110.25" y="381.0352">RegularPrice</text><line style="stroke: #A80036; stroke-width: 1.5;" x1="1025" x2="1235" y1="392.5" y2="392.5"/><line style="stroke: #A80036; stroke-width: 1.5;" x1="1025" x2="1235" y1="400.5" y2="400.5"/><ellipse cx="1035" cy="412.4775" fill="#84BE84" rx="3" ry="3" style="stroke: #038048; stroke-width: 1.0;"/><text fill="#000000" font-family="sans-serif" font-size="11" lengthAdjust="spacingAndGlyphs" textLength="186" x="1044" y="415.1348">double getCharge (int daysRented)</text><ellipse cx="1035" cy="425.4326" fill="#84BE84" rx="3" ry="3" style="stroke: #038048; stroke-width: 1.0;"/><text fill="#000000" font-family="sans-serif" font-size="11" lengthAdjust="spacingAndGlyphs" textLength="99" x="1044" y="428.0898">int getPriceCode ()</text><!--class Movie--><rect fill="#FEFECE" filter="url(#fl3m0pc8ljuzt)" height="164.5957" id="Movie" style="stroke: #A80036; stroke-width: 1.5;" width="266" x="422" y="8"/><ellipse cx="534.25" cy="24" fill="#ADD1B2" rx="11" ry="11" style="stroke: #A80036; stroke-width: 1.0;"/><path d="M536.7231,30.1431 Q536.1421,30.4419 535.5029,30.5913 Q534.8638,30.7407 534.1582,30.7407 Q531.6514,30.7407 530.3315,29.0889 Q529.0117,27.437 529.0117,24.3159 Q529.0117,21.1865 530.3315,19.5347 Q531.6514,17.8828 534.1582,17.8828 Q534.8638,17.8828 535.5112,18.0322 Q536.1587,18.1816 536.7231,18.4805 L536.7231,21.2031 Q536.0923,20.6221 535.4988,20.3523 Q534.9053,20.0825 534.2744,20.0825 Q532.9297,20.0825 532.2449,21.1492 Q531.5601,22.2158 531.5601,24.3159 Q531.5601,26.4077 532.2449,27.4744 Q532.9297,28.541 534.2744,28.541 Q534.9053,28.541 535.4988,28.2712 Q536.0923,28.0015 536.7231,27.4204 Z "/><text fill="#000000" font-family="sans-serif" font-size="12" lengthAdjust="spacingAndGlyphs" textLength="33" x="554.75" y="28.5352">Movie</text><line style="stroke: #A80036; stroke-width: 1.5;" x1="423" x2="687" y1="40" y2="40"/><rect fill="none" height="6" style="stroke: #C82930; stroke-width: 1.0;" width="6" x="430" y="48.9775"/><text fill="#000000" font-family="sans-serif" font-size="11" lengthAdjust="spacingAndGlyphs" textLength="61" x="442" y="54.6348">String _title</text><rect fill="none" height="6" style="stroke: #C82930; stroke-width: 1.0;" width="6" x="430" y="61.9326"/><text fill="#000000" font-family="sans-serif" font-size="11" lengthAdjust="spacingAndGlyphs" textLength="62" x="442" y="67.5898">Price _price</text><line style="stroke: #A80036; stroke-width: 1.5;" x1="423" x2="687" y1="73.9102" y2="73.9102"/><ellipse cx="433" cy="85.8877" fill="#84BE84" rx="3" ry="3" style="stroke: #038048; stroke-width: 1.0;"/><text fill="#000000" font-family="sans-serif" font-size="11" lengthAdjust="spacingAndGlyphs" textLength="193" x="442" y="88.5449">Movie (String title, String priceCode)</text><ellipse cx="433" cy="98.8428" fill="#84BE84" rx="3" ry="3" style="stroke: #038048; stroke-width: 1.0;"/><text fill="#000000" font-family="sans-serif" font-size="11" lengthAdjust="spacingAndGlyphs" textLength="186" x="442" y="101.5">double getCharge (int daysRented)</text><ellipse cx="433" cy="111.7979" fill="#84BE84" rx="3" ry="3" style="stroke: #038048; stroke-width: 1.0;"/><text fill="#000000" font-family="sans-serif" font-size="11" lengthAdjust="spacingAndGlyphs" textLength="240" x="442" y="114.4551">int getFrequentRenterPoints (int daysRented)</text><ellipse cx="433" cy="124.7529" fill="#84BE84" rx="3" ry="3" style="stroke: #038048; stroke-width: 1.0;"/><text fill="#000000" font-family="sans-serif" font-size="11" lengthAdjust="spacingAndGlyphs" textLength="99" x="442" y="127.4102">int getPriceCode ()</text><ellipse cx="433" cy="137.708" fill="#84BE84" rx="3" ry="3" style="stroke: #038048; stroke-width: 1.0;"/><text fill="#000000" font-family="sans-serif" font-size="11" lengthAdjust="spacingAndGlyphs" textLength="206" x="442" y="140.3652">String getStatement (int daysRented) ()</text><ellipse cx="433" cy="150.6631" fill="#84BE84" rx="3" ry="3" style="stroke: #038048; stroke-width: 1.0;"/><text fill="#000000" font-family="sans-serif" font-size="11" lengthAdjust="spacingAndGlyphs" textLength="86" x="442" y="153.3203">String getTitle ()</text><ellipse cx="433" cy="163.6182" fill="#84BE84" rx="3" ry="3" style="stroke: #038048; stroke-width: 1.0;"/><text fill="#000000" font-family="sans-serif" font-size="11" lengthAdjust="spacingAndGlyphs" textLength="197" x="442" y="166.2754">void setPriceCode (String priceCode)</text><!--class Rental--><rect fill="#FEFECE" filter="url(#fl3m0pc8ljuzt)" height="151.6406" id="Rental" style="stroke: #A80036; stroke-width: 1.5;" width="187" x="199.5" y="14.5"/><ellipse cx="270.75" cy="30.5" fill="#ADD1B2" rx="11" ry="11" style="stroke: #A80036; stroke-width: 1.0;"/><path d="M273.2231,36.6431 Q272.6421,36.9419 272.0029,37.0913 Q271.3638,37.2407 270.6582,37.2407 Q268.1514,37.2407 266.8315,35.5889 Q265.5117,33.937 265.5117,30.8159 Q265.5117,27.6865 266.8315,26.0347 Q268.1514,24.3828 270.6582,24.3828 Q271.3638,24.3828 272.0112,24.5322 Q272.6587,24.6816 273.2231,24.9805 L273.2231,27.7031 Q272.5923,27.1221 271.9988,26.8523 Q271.4053,26.5825 270.7744,26.5825 Q269.4297,26.5825 268.7449,27.6492 Q268.0601,28.7158 268.0601,30.8159 Q268.0601,32.9077 268.7449,33.9744 Q269.4297,35.041 270.7744,35.041 Q271.4053,35.041 271.9988,34.7712 Q272.5923,34.5015 273.2231,33.9204 Z "/><text fill="#000000" font-family="sans-serif" font-size="12" lengthAdjust="spacingAndGlyphs" textLength="36" x="291.25" y="35.0352">Rental</text><line style="stroke: #A80036; stroke-width: 1.5;" x1="200.5" x2="385.5" y1="46.5" y2="46.5"/><rect fill="none" height="6" style="stroke: #C82930; stroke-width: 1.0;" width="6" x="207.5" y="55.4775"/><text fill="#000000" font-family="sans-serif" font-size="11" lengthAdjust="spacingAndGlyphs" textLength="72" x="219.5" y="61.1348">Movie _movie</text><rect fill="none" height="6" style="stroke: #C82930; stroke-width: 1.0;" width="6" x="207.5" y="68.4326"/><text fill="#000000" font-family="sans-serif" font-size="11" lengthAdjust="spacingAndGlyphs" textLength="85" x="219.5" y="74.0898">int _daysRented</text><line style="stroke: #A80036; stroke-width: 1.5;" x1="200.5" x2="385.5" y1="80.4102" y2="80.4102"/><ellipse cx="210.5" cy="92.3877" fill="#84BE84" rx="3" ry="3" style="stroke: #038048; stroke-width: 1.0;"/><text fill="#000000" font-family="sans-serif" font-size="11" lengthAdjust="spacingAndGlyphs" textLength="160" x="219.5" y="95.0449">Rental (Movie, int daysRented)</text><ellipse cx="210.5" cy="105.3428" fill="#84BE84" rx="3" ry="3" style="stroke: #038048; stroke-width: 1.0;"/><text fill="#000000" font-family="sans-serif" font-size="11" lengthAdjust="spacingAndGlyphs" textLength="107" x="219.5" y="108">double getCharge ()</text><ellipse cx="210.5" cy="118.2979" fill="#84BE84" rx="3" ry="3" style="stroke: #038048; stroke-width: 1.0;"/><text fill="#000000" font-family="sans-serif" font-size="11" lengthAdjust="spacingAndGlyphs" textLength="108" x="219.5" y="120.9551">int getDaysRented ()</text><ellipse cx="210.5" cy="131.2529" fill="#84BE84" rx="3" ry="3" style="stroke: #038048; stroke-width: 1.0;"/><text fill="#000000" font-family="sans-serif" font-size="11" lengthAdjust="spacingAndGlyphs" textLength="161" x="219.5" y="133.9102">int getFrequentRenterPoints ()</text><ellipse cx="210.5" cy="144.208" fill="#84BE84" rx="3" ry="3" style="stroke: #038048; stroke-width: 1.0;"/><text fill="#000000" font-family="sans-serif" font-size="11" lengthAdjust="spacingAndGlyphs" textLength="93" x="219.5" y="146.8652">Movie getMovie ()</text><ellipse cx="210.5" cy="157.1631" fill="#84BE84" rx="3" ry="3" style="stroke: #038048; stroke-width: 1.0;"/><text fill="#000000" font-family="sans-serif" font-size="11" lengthAdjust="spacingAndGlyphs" textLength="116" x="219.5" y="159.8203">String getStatement ()</text><!--class Customer--><rect fill="#FEFECE" filter="url(#fl3m0pc8ljuzt)" height="125.7305" id="Customer" style="stroke: #A80036; stroke-width: 1.5;" width="158" x="6" y="27.5"/><ellipse cx="53.25" cy="43.5" fill="#ADD1B2" rx="11" ry="11" style="stroke: #A80036; stroke-width: 1.0;"/><path d="M55.7231,49.6431 Q55.1421,49.9419 54.5029,50.0913 Q53.8638,50.2407 53.1582,50.2407 Q50.6514,50.2407 49.3315,48.5889 Q48.0117,46.937 48.0117,43.8159 Q48.0117,40.6865 49.3315,39.0347 Q50.6514,37.3828 53.1582,37.3828 Q53.8638,37.3828 54.5112,37.5322 Q55.1587,37.6816 55.7231,37.9805 L55.7231,40.7031 Q55.0923,40.1221 54.4988,39.8523 Q53.9053,39.5825 53.2744,39.5825 Q51.9297,39.5825 51.2449,40.6492 Q50.5601,41.7158 50.5601,43.8159 Q50.5601,45.9077 51.2449,46.9744 Q51.9297,48.041 53.2744,48.041 Q53.9053,48.041 54.4988,47.7712 Q55.0923,47.5015 55.7231,46.9204 Z "/><text fill="#000000" font-family="sans-serif" font-size="12" lengthAdjust="spacingAndGlyphs" textLength="55" x="73.75" y="48.0352">Customer</text><line style="stroke: #A80036; stroke-width: 1.5;" x1="7" x2="163" y1="59.5" y2="59.5"/><rect fill="none" height="6" style="stroke: #C82930; stroke-width: 1.0;" width="6" x="14" y="68.4775"/><text fill="#000000" font-family="sans-serif" font-size="11" lengthAdjust="spacingAndGlyphs" textLength="70" x="26" y="74.1348">String _name</text><rect fill="none" height="6" style="stroke: #C82930; stroke-width: 1.0;" width="6" x="14" y="81.4326"/><text fill="#000000" font-family="sans-serif" font-size="11" lengthAdjust="spacingAndGlyphs" textLength="132" x="26" y="87.0898">Vector&lt;Rental&gt; _rentals</text><line style="stroke: #A80036; stroke-width: 1.5;" x1="7" x2="163" y1="93.4102" y2="93.4102"/><ellipse cx="17" cy="105.3877" fill="#84BE84" rx="3" ry="3" style="stroke: #038048; stroke-width: 1.0;"/><text fill="#000000" font-family="sans-serif" font-size="11" lengthAdjust="spacingAndGlyphs" textLength="128" x="26" y="108.0449">Customer (String name)</text><ellipse cx="17" cy="118.3428" fill="#84BE84" rx="3" ry="3" style="stroke: #038048; stroke-width: 1.0;"/><text fill="#000000" font-family="sans-serif" font-size="11" lengthAdjust="spacingAndGlyphs" textLength="123" x="26" y="121">void addRental (Rental)</text><ellipse cx="17" cy="131.2979" fill="#84BE84" rx="3" ry="3" style="stroke: #038048; stroke-width: 1.0;"/><text fill="#000000" font-family="sans-serif" font-size="11" lengthAdjust="spacingAndGlyphs" textLength="93" x="26" y="133.9551">String getName ()</text><ellipse cx="17" cy="144.2529" fill="#84BE84" rx="3" ry="3" style="stroke: #038048; stroke-width: 1.0;"/><text fill="#000000" font-family="sans-serif" font-size="11" lengthAdjust="spacingAndGlyphs" textLength="99" x="26" y="146.9102">String statement ()</text><!--link Price to AbstractPrice--><path d="M856,154.35 C856,181.2104 856,211.2055 856,232.9445 " fill="none" id="Price-AbstractPrice" style="stroke: #A80036; stroke-width: 1.0;"/><polygon fill="none" points="849.0001,154.1552,856,134.1552,863.0001,154.1552,849.0001,154.1552" style="stroke: #A80036; stroke-width: 1.0;"/><!--link AbstractPrice to ChildrensPrice--><path d="M775.2759,302.9782 C738.0905,321.1638 694.21,342.6236 657.6662,360.4954 " fill="none" id="AbstractPrice-ChildrensPrice" style="stroke: #A80036; stroke-width: 1.0;"/><polygon fill="none" points="772.4404,296.5727,793.4823,294.0743,778.5911,309.1492,772.4404,296.5727" style="stroke: #A80036; stroke-width: 1.0;"/><!--link AbstractPrice to NewReleasePrice--><path d="M856,314.3532 C856,327.3984 856,341.312 856,353.9514 " fill="none" id="AbstractPrice-NewReleasePrice" style="stroke: #A80036; stroke-width: 1.0;"/><polygon fill="none" points="849.0001,314.2423,856,294.2423,863.0001,314.2423,849.0001,314.2423" style="stroke: #A80036; stroke-width: 1.0;"/><!--link AbstractPrice to RegularPrice--><path d="M936.7241,302.9782 C973.9095,321.1638 1017.79,342.6236 1054.3338,360.4954 " fill="none" id="AbstractPrice-RegularPrice" style="stroke: #A80036; stroke-width: 1.0;"/><polygon fill="none" points="933.4089,309.1492,918.5177,294.0743,939.5596,296.5727,933.4089,309.1492" style="stroke: #A80036; stroke-width: 1.0;"/><!--link Movie to Price--><path d="M701.188,90.5 C708.4273,90.5 715.6666,90.5 722.9059,90.5 " fill="none" id="Movie-Price" style="stroke: #A80036; stroke-width: 1.0;"/><polygon fill="#A80036" points="688.1572,90.5,694.1572,94.5,700.1572,90.5,694.1572,86.5,688.1572,90.5" style="stroke: #A80036; stroke-width: 1.0;"/><text fill="#000000" font-family="sans-serif" font-size="13" lengthAdjust="spacingAndGlyphs" textLength="8" x="706.9801" y="87.6476">1</text><!--link Rental to Movie--><path d="M399.8384,90.5 C407.1683,90.5 414.4983,90.5 421.8282,90.5 " fill="none" id="Rental-Movie" style="stroke: #A80036; stroke-width: 1.0;"/><polygon fill="#FFFFFF" points="386.6445,90.5,392.6445,94.5,398.6445,90.5,392.6445,86.5,386.6445,90.5" style="stroke: #A80036; stroke-width: 1.0;"/><text fill="#000000" font-family="sans-serif" font-size="13" lengthAdjust="spacingAndGlyphs" textLength="6" x="394.6479" y="87.475">*</text><text fill="#000000" font-family="sans-serif" font-size="13" lengthAdjust="spacingAndGlyphs" textLength="8" x="405.898" y="87.6554">1</text><!--link Customer to Rental--><path d="M177.4239,90.5 C184.76,90.5 192.0962,90.5 199.4324,90.5 " fill="none" id="Customer-Rental" style="stroke: #A80036; stroke-width: 1.0;"/><polygon fill="#A80036" points="164.2188,90.5,170.2188,94.5,176.2188,90.5,170.2188,86.5,164.2188,90.5" style="stroke: #A80036; stroke-width: 1.0;"/><text fill="#000000" font-family="sans-serif" font-size="13" lengthAdjust="spacingAndGlyphs" textLength="8" x="171.8905" y="87.4037">1</text><text fill="#000000" font-family="sans-serif" font-size="13" lengthAdjust="spacingAndGlyphs" textLength="6" x="185.4354" y="87.475">*</text><!--
@startuml
Price         <|- - AbstractPrice
AbstractPrice <|- - ChildrensPrice
AbstractPrice <|- - NewReleasePrice
AbstractPrice <|- - RegularPrice

Movie        *-   "1" Price
Rental   "*" o-   "1" Movie
Customer "1" *-   "*" Rental

interface Price {
    + double getCharge (int daysRented)
    + int getPriceCode ()
    + int getFrequentRenterPoints (int daysRented)
    }

abstract class AbstractPrice {
    + int getFrequentRenterPoints (int daysRented)
    }

class ChildrensPrice {
    + double getCharge (int daysRented)
    + int getPriceCode ()
    }

class NewReleasePrice {
    + double getCharge (int daysRented)
    + int getFrequentRenterPoints (int daysRented)
    + int getPriceCode ()
    }

class RegularPrice {
    + double getCharge (int daysRented)
    + int getPriceCode ()
    }

class Movie {
    - String _title
    - Price _price
    + Movie (String title, String priceCode)
    + double getCharge (int daysRented)
    + int getFrequentRenterPoints (int daysRented)
    + int getPriceCode ()
    + String getStatement (int daysRented) ()
    + String getTitle ()
    + void setPriceCode (String priceCode)
    }

class Rental {
    - Movie _movie
    - int _daysRented
    + Rental (Movie, int daysRented)
    + double getCharge ()
    + int getDaysRented ()
    + int getFrequentRenterPoints ()
    + Movie getMovie ()
    + String getStatement ()
    }

class Customer {
    - String _name
    - Vector<Rental> _rentals
    + Customer (String name)
    + void addRental (Rental)
    + String getName ()
    + String statement ()
    }

@enduml

PlantUML version 1.2019.03(Sun Mar 10 06:04:44 CDT 2019)
(GPL source distribution)
Java Runtime: Java(TM) SE Runtime Environment
JVM: Java HotSpot(TM) 64-Bit Server VM
Java Version: 10.0.2+13
Operating System: Mac OS X
OS Version: 10.14.4
Default Encoding: UTF-8
Language: en
Country: US
--></g></svg>